AR kyi_sch behavioral D:/fpga_labs/kyi_lab3/kyi_sch.vhf sub00/vhpl23 1479569524
AR kyi_f kyi_f_a D:/fpga_labs/kyi_lab3/ipcore_dir/kyi_f.vhd sub00/vhpl13 1479569514
EN add16_mxilinx_kyi_sch2 NULL D:/fpga_labs/kyi_lab3/kyi_sch2.vhf sub00/vhpl04 1479569525
AR kyi_sch2 behavioral D:/fpga_labs/kyi_lab3/kyi_sch2.vhf sub00/vhpl11 1479569532
EN kyi_sch2_muser_kyi_sch NULL D:/fpga_labs/kyi_lab3/kyi_sch.vhf sub00/vhpl20 1479569521
AR kyi_sch2_muser_kyi_sch behavioral D:/fpga_labs/kyi_lab3/kyi_sch.vhf sub00/vhpl21 1479569522
AR fd8ce_mxilinx_kyi_sch2 behavioral D:/fpga_labs/kyi_lab3/kyi_sch2.vhf sub00/vhpl09 1479569530
AR kyi_m1 behavioral D:/fpga_labs/kyi_lab3/kyi_m1.vhd sub00/vhpl01 1479569510
EN fd8ce_mxilinx_kyi_sch NULL D:/fpga_labs/kyi_lab3/kyi_sch.vhf sub00/vhpl18 1479569519
EN kyi_sch NULL D:/fpga_labs/kyi_lab3/kyi_sch.vhf sub00/vhpl22 1479569523
AR fd16ce_mxilinx_kyi_sch behavioral D:/fpga_labs/kyi_lab3/kyi_sch.vhf sub00/vhpl17 1479569518
EN kyi_f NULL D:/fpga_labs/kyi_lab3/ipcore_dir/kyi_f.vhd sub00/vhpl12 1479569513
EN fd16ce_mxilinx_kyi_sch2 NULL D:/fpga_labs/kyi_lab3/kyi_sch2.vhf sub00/vhpl06 1479569527
EN fd8ce_mxilinx_kyi_sch2 NULL D:/fpga_labs/kyi_lab3/kyi_sch2.vhf sub00/vhpl08 1479569529
AR kyi_m2 behavioral D:/fpga_labs/kyi_lab3/kyi_m2.vhd sub00/vhpl03 1479569512
AR fd8ce_mxilinx_kyi_sch behavioral D:/fpga_labs/kyi_lab3/kyi_sch.vhf sub00/vhpl19 1479569520
EN kyi_m1 NULL D:/fpga_labs/kyi_lab3/kyi_m1.vhd sub00/vhpl00 1479569509
EN kyi_m2 NULL D:/fpga_labs/kyi_lab3/kyi_m2.vhd sub00/vhpl02 1479569511
EN add16_mxilinx_kyi_sch NULL D:/fpga_labs/kyi_lab3/kyi_sch.vhf sub00/vhpl14 1479569515
AR fd16ce_mxilinx_kyi_sch2 behavioral D:/fpga_labs/kyi_lab3/kyi_sch2.vhf sub00/vhpl07 1479569528
EN kyi_sch2 NULL D:/fpga_labs/kyi_lab3/kyi_sch2.vhf sub00/vhpl10 1479569531
EN fd16ce_mxilinx_kyi_sch NULL D:/fpga_labs/kyi_lab3/kyi_sch.vhf sub00/vhpl16 1479569517
AR add16_mxilinx_kyi_sch behavioral D:/fpga_labs/kyi_lab3/kyi_sch.vhf sub00/vhpl15 1479569516
AR add16_mxilinx_kyi_sch2 behavioral D:/fpga_labs/kyi_lab3/kyi_sch2.vhf sub00/vhpl05 1479569526
