V3 6
FL C:/Plis/l_3/l.vhd 2017/12/26.21:46:34 P.20131013
EN work/l 1514317928 FL C:/Plis/l_3/l.vhd PB ieee/std_logic_1164 1381692176 \
      PB ieee/NUMERIC_STD 1381692181
AR work/l/Behavioral 1514317929 \
      FL C:/Plis/l_3/l.vhd EN work/l 1514317928
FL C:/Plis/l_3/l_3.vhd 2017/12/26.21:41:46 P.20131013
EN work/l_3 1514317984 FL C:/Plis/l_3/l_3.vhd PB ieee/std_logic_1164 1381692176 \
      PB ieee/NUMERIC_STD 1381692181
AR work/l_3/Behavioral 1514317985 \
      FL C:/Plis/l_3/l_3.vhd EN work/l_3 1514317984
