V3 59
FL D:/fpga_labs/kyi_lab4/bus_8_32.vhd 2016/11/19.12:59:12 P.20131013
EN work/bus_8_32 1479545954 FL D:/fpga_labs/kyi_lab4/bus_8_32.vhd \
      PB ieee/std_logic_1164 1381692176
AR work/bus_8_32/Behavioral 1479545955 \
      FL D:/fpga_labs/kyi_lab4/bus_8_32.vhd EN work/bus_8_32 1479545954
FL D:/fpga_labs/kyi_lab4/ipcore_dir/kyi_b2.vhd 2016/11/17.22:27:26 P.20131013
EN work/kyi_b2 1479413235 FL D:/fpga_labs/kyi_lab4/ipcore_dir/kyi_b2.vhd \
      PB ieee/std_logic_1164 1381692176
AR work/kyi_b2/kyi_b2_a 1479413236 \
      FL D:/fpga_labs/kyi_lab4/ipcore_dir/kyi_b2.vhd EN work/kyi_b2 1479413235
FL D:/fpga_labs/kyi_lab4/ipcore_dir/kyi_mul.vhd 2016/11/17.22:31:17 P.20131013
EN work/kyi_mul 1479413237 FL D:/fpga_labs/kyi_lab4/ipcore_dir/kyi_mul.vhd \
      PB ieee/std_logic_1164 1381692176
AR work/kyi_mul/kyi_mul_a 1479413238 \
      FL D:/fpga_labs/kyi_lab4/ipcore_dir/kyi_mul.vhd EN work/kyi_mul 1479413237
FL D:/fpga_labs/kyi_lab4/ipcore_dir/kyi_mulc.vhd 2016/11/17.23:51:39 P.20131013
EN work/kyi_mulc 1479413239 FL D:/fpga_labs/kyi_lab4/ipcore_dir/kyi_mulc.vhd \
      PB ieee/std_logic_1164 1381692176
AR work/kyi_mulc/kyi_mulc_a 1479413240 \
      FL D:/fpga_labs/kyi_lab4/ipcore_dir/kyi_mulc.vhd EN work/kyi_mulc 1479413239
FL D:/fpga_labs/kyi_lab4/kyi_count.vhd 2016/11/19.12:52:49 P.20131013
EN work/kyi_count 1479545572 FL D:/fpga_labs/kyi_lab4/kyi_count.vhd \
      PB ieee/std_logic_1164 1381692176 PB ieee/std_logic_arith 1381692177 \
      PB ieee/STD_LOGIC_UNSIGNED 1381692179
AR work/kyi_count/Behavioral 1479545573 \
      FL D:/fpga_labs/kyi_lab4/kyi_count.vhd EN work/kyi_count 1479545572
FL D:/fpga_labs/kyi_lab4/kyi_mux_32.vhd 2016/11/19.13:02:59 P.20131013
EN work/kyi_mux_32 1479546181 FL D:/fpga_labs/kyi_lab4/kyi_mux_32.vhd \
      PB ieee/std_logic_1164 1381692176
AR work/kyi_mux_32/Behavioral 1479546182 \
      FL D:/fpga_labs/kyi_lab4/kyi_mux_32.vhd EN work/kyi_mux_32 1479546181
FL D:/fpga_labs/kyi_lab4/kyi_ram4_32.vhd 2016/11/19.13:08:37 P.20131013
EN work/kyi_mul4_32 1479546520 FL D:/fpga_labs/kyi_lab4/kyi_ram4_32.vhd \
      PB ieee/std_logic_1164 1381692176
AR work/kyi_mul4_32/Behavioral 1479546521 \
      FL D:/fpga_labs/kyi_lab4/kyi_ram4_32.vhd EN work/kyi_mul4_32 1479546520
FL D:/fpga_labs/kyi_lab4/kyi_ram_32.vhd 2016/11/19.12:49:55 P.20131013
EN work/kyi_ram_32 1479545397 FL D:/fpga_labs/kyi_lab4/kyi_ram_32.vhd \
      PB ieee/std_logic_1164 1381692176 PB ieee/STD_LOGIC_UNSIGNED 1381692179
AR work/kyi_ram_32/Behavioral 1479545398 \
      FL D:/fpga_labs/kyi_lab4/kyi_ram_32.vhd EN work/kyi_ram_32 1479545397
FL D:/fpga_labs/kyi_lab4/kyi_reg_32.vhd 2016/11/19.12:56:59 P.20131013
EN work/kyi_reg_32 1479545821 FL D:/fpga_labs/kyi_lab4/kyi_reg_32.vhd \
      PB ieee/std_logic_1164 1381692176
AR work/kyi_reg_32/Behavioral 1479545822 \
      FL D:/fpga_labs/kyi_lab4/kyi_reg_32.vhd EN work/kyi_reg_32 1479545821
FL D:/fpga_labs/kyi_lab4/kyi_rom.vhd 2016/11/19.12:45:42 P.20131013
EN work/kyi_rom 1479558875 FL D:/fpga_labs/kyi_lab4/kyi_rom.vhd \
      PB ieee/std_logic_1164 1381692176 PB ieee/STD_LOGIC_UNSIGNED 1381692179 \
      PB ieee/std_logic_arith 1381692177
AR work/kyi_rom/Behavioral 1479558876 \
      FL D:/fpga_labs/kyi_lab4/kyi_rom.vhd EN work/kyi_rom 1479558875
FL D:/fpga_labs/kyi_lab4/kyi_sch_konv.vhf 2016/11/18.00:07:10 P.20131013
EN work/FD16CE_MXILINX_kyi_sch_konv 1479413241 \
      FL D:/fpga_labs/kyi_lab4/kyi_sch_konv.vhf PB ieee/std_logic_1164 1381692176 \
      PB ieee/NUMERIC_STD 1381692181 LB UNISIM PH unisim/VCOMPONENTS 1381692182
AR work/FD16CE_MXILINX_kyi_sch_konv/BEHAVIORAL 1479413242 \
      FL D:/fpga_labs/kyi_lab4/kyi_sch_konv.vhf \
      EN work/FD16CE_MXILINX_kyi_sch_konv 1479413241 CP FDCE
EN work/ADD16_MXILINX_kyi_sch_konv 1479413243 \
      FL D:/fpga_labs/kyi_lab4/kyi_sch_konv.vhf PB ieee/std_logic_1164 1381692176 \
      PB ieee/NUMERIC_STD 1381692181 LB UNISIM PH unisim/VCOMPONENTS 1381692182
AR work/ADD16_MXILINX_kyi_sch_konv/BEHAVIORAL 1479413244 \
      FL D:/fpga_labs/kyi_lab4/kyi_sch_konv.vhf \
      EN work/ADD16_MXILINX_kyi_sch_konv 1479413243 CP FMAP CP MUXCY_L CP MUXCY \
      CP XORCY CP MUXCY_D CP XOR2
EN work/FD8CE_MXILINX_kyi_sch_konv 1479413245 \
      FL D:/fpga_labs/kyi_lab4/kyi_sch_konv.vhf PB ieee/std_logic_1164 1381692176 \
      PB ieee/NUMERIC_STD 1381692181 LB UNISIM PH unisim/VCOMPONENTS 1381692182
AR work/FD8CE_MXILINX_kyi_sch_konv/BEHAVIORAL 1479413246 \
      FL D:/fpga_labs/kyi_lab4/kyi_sch_konv.vhf \
      EN work/FD8CE_MXILINX_kyi_sch_konv 1479413245 CP FDCE
EN work/ADSU8_MXILINX_kyi_sch_konv 1479413247 \
      FL D:/fpga_labs/kyi_lab4/kyi_sch_konv.vhf PB ieee/std_logic_1164 1381692176 \
      PB ieee/NUMERIC_STD 1381692181 LB UNISIM PH unisim/VCOMPONENTS 1381692182
AR work/ADSU8_MXILINX_kyi_sch_konv/BEHAVIORAL 1479413248 \
      FL D:/fpga_labs/kyi_lab4/kyi_sch_konv.vhf \
      EN work/ADSU8_MXILINX_kyi_sch_konv 1479413247 CP FMAP CP XOR3 CP MUXCY_L \
      CP MUXCY CP XORCY CP MUXCY_D CP INV CP XOR2
EN work/kyi_sch_konv 1479413249 \
      FL D:/fpga_labs/kyi_lab4/kyi_sch_konv.vhf PB ieee/std_logic_1164 1381692176 \
      PB ieee/NUMERIC_STD 1381692181 LB UNISIM PH unisim/VCOMPONENTS 1381692182
AR work/kyi_sch_konv/BEHAVIORAL 1479413250 \
      FL D:/fpga_labs/kyi_lab4/kyi_sch_konv.vhf EN work/kyi_sch_konv 1479413249 \
      CP FD8CE_MXILINX_kyi_sch_konv CP kyi_b2 CP FD16CE_MXILINX_kyi_sch_konv \
      CP ADSU8_MXILINX_kyi_sch_konv CP kyi_mul CP ADD16_MXILINX_kyi_sch_konv CP GND \
      CP kyi_mulc
