SET_PARAMETER allow_rounding_approximation false
SET_PARAMETER data_sign Signed
SET_PARAMETER filter_selection 1
SET_PARAMETER filter_type Single_Rate
SET_PARAMETER coefficient_file no_coe_file_loaded
SET_PARAMETER input_buffer_type Automatic
SET_PARAMETER preference_for_other_storage Automatic
SET_PARAMETER gui_behaviour Coregen
SET_PARAMETER has_nd false
SET_PARAMETER coefficient_sets 1
SET_PARAMETER number_paths 1
SET_PARAMETER sample_frequency 0.001
SET_PARAMETER interpolation_rate 1
SET_PARAMETER quantization Integer_Coefficients
SET_PARAMETER data_width 8
SET_PARAMETER coefficient_width 8
SET_PARAMETER hardwareoversamplingrate 1
SET_PARAMETER clock_frequency 300.0
SET_PARAMETER coefficient_sign Unsigned
SET_PARAMETER coefficientsource Vector
SET_PARAMETER coefficient_buffer_type Automatic
SET_PARAMETER filter_architecture Systolic_Multiply_Accumulate
SET_PARAMETER registered_output true
SET_PARAMETER displayreloadorder false
SET_PARAMETER ratespecification Sample_Period
SET_PARAMETER output_width 17
SET_PARAMETER coefficientvector 113,98,98
SET_PARAMETER passband_max 0.5
SET_PARAMETER stopband_max 1.0
SET_PARAMETER optimization_goal Area
SET_PARAMETER data_buffer_type Automatic
SET_PARAMETER sampleperiod 1
SET_PARAMETER component_name kyi_f
SET_PARAMETER rate_change_type Integer
SET_PARAMETER coefficient_structure Inferred
SET_PARAMETER columnconfig 3
SET_PARAMETER inter_column_pipe_length 4
SET_PARAMETER number_channels 1
SET_PARAMETER chan_in_adv 0
SET_PARAMETER has_data_valid false
SET_PARAMETER output_buffer_type Automatic
SET_PARAMETER passband_min 0.0
SET_PARAMETER stopband_min 0.5
SET_PARAMETER has_sclr false
SET_PARAMETER data_fractional_bits 0
SET_PARAMETER zero_pack_factor 1
SET_PARAMETER coefficient_fractional_bits 0
SET_PARAMETER multi_column_support Disabled
SET_PARAMETER coefficient_reload false
SET_PARAMETER decimation_rate 1
SET_PARAMETER sclr_deterministic false
SET_PARAMETER has_ce false
SET_PARAMETER bestprecision false
SET_PARAMETER output_rounding_mode Full_Precision
SET_PARAMETER usechan_in_adv false
SET_ERROR_CODE 2
SET_ERROR_MSG  CANCEL: Customization cancelled.
SET_ERROR_TEXT Finished initializing IP model.	
