AR khyui_m1 behavioral D:/fpga_labs/KhYuI_lab1/KhYuI_m1.vhd sub00/vhpl03 1475068162
AR khyui_sch1 behavioral D:/fpga_labs/KhYuI_lab1/KhYuI_sch1.vhf sub00/vhpl01 1475065711
EN khyui_sch1 NULL D:/fpga_labs/KhYuI_lab1/KhYuI_sch1.vhf sub00/vhpl00 1475065710
EN khyui_m1 NULL D:/fpga_labs/KhYuI_lab1/KhYuI_m1.vhd sub00/vhpl02 1475068161
